412889 853831 525
815172 50499 509
248223 316923 407
575665 326512 470
611814 816112 509
775615 677785 504
649210 878188 525
666654 791834 504
672099 763489 504
711142 207773 509
792322 85411 509
242182 118464 443
751143 949573 525
494173 711027 509
834522 922672 525
194660 854448 525
191290 636474 509
732523 372538 509
737729 420307 509
394469 927691 525
661391 665052 367
460332 766170 509
657234 513281 509
896878 224459 525
920766 739221 525
933270 717773 525
147416 404192 443
875427 561112 525
984023 685011 525
66192 654150 509
573525 477337 470
50607 465833 449
494018 331459 449
953487 754547 525
885012 128198 525
561922 314627 470
821032 248030 509
556753 909431 525
60491 885305 525
784991 276887 509
925195 466699 525
314891 82286 443
252279 192912 443
62819 207103 383
661991 594315 509
785878 949208 525
447464 429378 400
785681 351881 509
210840 442619 449
925606 166123 525
967027 546797 525
536452 262275 470
142142 48196 354
345549 420640 449
854399 825796 525
651981 46146 509
254428 242865 350
117748 640484 509
687919 347873 509
691721 498402 509
344661 420826 449
136407 105223 354
528125 314308 470
558395 778439 509
417059 536448 470
817651 204302 509
177099 190269 365
204305 232240 443
636371 135895 509
145207 542968 470
922189 199488 525
655141 201826 509
270633 711708 509
974451 141644 525
276257 601622 470
583067 803636 509
298135 900642 525
598378 35759 470
580068 308900 470
717080 971449 525
121281 245355 443
486857 198420 449
851176 95955 525
756868 276765 509
198145 454012 449
480454 115380 449
163402 772363 509
611791 631784 509
370169 721050 509
737794 889958 525
593419 362363 470
183569 751703 509
10136 570074 470
470159 111837 449
893839 198597 525
924006 86279 525
113936 359427 443
513279 361525 470
646776 223270 509
549131 936405 525
310063 632842 509
90169 664662 509
271467 562005 470
266223 397861 441
860171 894716 445
220169 310140 443
519070 478788 470
878943 226177 525
447747 973806 525
331943 418663 449
351759 872724 525
737199 275216 509
503949 131846 449
109416 150238 375
99044 409956 443
897376 575188 525
663626 682187 442
485360 57061 449
982763 506642 525
129957 82470 354
901953 420874 525
734014 532568 509
85477 119231 354
604318 941310 525
876144 732756 525
370769 279390 441
932415 665564 525
210563 904704 525
168779 545464 470
767972 13605 509
2123 435560 449
805078 647743 504
459953 295233 449
635208 884741 525
258940 42892 443
770855 248291 509
725267 717058 411
362625 901019 525
449329 155781 449
520592 934184 525
798813 388624 509
502685 419384 444
243427 528874 470
979073 314302 525
186845 260648 443
548239 393889 470
539877 42840 470
115425 79669 354
880693 271273 525
323009 440702 449
277480 788470 509
772975 207616 509
159309 818943 509
877909 963540 507
49230 682135 509
771985 510907 509
523550 9590 470
447036 109596 449
644686 677346 442
85578 478422 449
953764 539133 525
901874 199785 525
779263 890279 525
121182 254305 443
904897 761865 525
376798 272501 441
978820 525021 525
568910 989286 525
940199 620790 525
886061 469379 525
725196 219835 509
430481 705981 509
714466 74300 509
810369 814930 406
192452 48394 383
843198 408065 525
299179 989180 525
962579 33893 525
890519 736941 525
563193 977013 525
804741 943031 525
435798 314408 449
79541 436588 449
497407 291790 449
724416 618255 509
174134 885823 525
336607 141352 443
807360 5443 509
914541 833849 525
405584 635556 509
596084 674330 509
83400 340048 443
662723 200431 509
566045 906626 525
76385 630515 509
810502 662816 504
52495 78952 351
228448 111728 386
458118 865136 525
149090 713010 509
673339 783557 504
302759 966222 525
322905 57857 443
132906 329742 443
867026 262840 525
655384 797621 504
853182 82428 525
831555 329178 509
906286 248282 525
444746 157648 449
314380 792414 509
480693 519882 470
726175 126045 509
39688 908595 525
31973 2613 308
2632 460648 449
179660 404958 443
224913 754339 509
58899 220512 386
876135 381234 525
968372 568628 525
115030 679507 509
977291 331077 525
864408 372655 525
226770 634661 509
530661 726376 509
214360 332266 443
375728 398670 436
575752 914301 525
444032 718320 509
134918 503074 449
427200 353852 449
659735 696290 442
886257 345975 525
967155 572113 525
521397 569543 452
44855 60686 340
99337 680296 509
590317 873831 525
275684 350913 441
864822 464829 525
548140 87961 470
349079 803678 509
189706 107692 383
86668 951940 525
897056 204305 525
627567 159053 509
885333 753727 525
559061 326198 470
14040 128721 354
